Te_abscissa,Te_cdf,split
-4,0,All
-3.48057,0.000961538,All
-3.06036,0.00192308,All
-2.93678,0.00288462,All
-2.58664,0.00384615,All
-2.45947,0.00480769,All
-2.44367,0.00576923,All
-2.38443,0.00673077,All
-2.35126,0.00769231,All
-2.34902,0.00865385,All
-2.27795,0.00961538,All
-2.23232,0.0105769,All
-2.21009,0.0115385,All
-2.16641,0.0125,All
-2.15167,0.0134615,All
-2.09542,0.0144231,All
-2.09316,0.0153846,All
-2.07949,0.0163462,All
-2.02019,0.0173077,All
-1.98309,0.0182692,All
-1.97396,0.0192308,All
-1.96644,0.0201923,All
-1.95303,0.0211538,All
-1.95129,0.0221154,All
-1.94014,0.0230769,All
-1.91371,0.0240385,All
-1.90592,0.025,All
-1.89692,0.0259615,All
-1.87133,0.0269231,All
-1.86629,0.0278846,All
-1.84504,0.0288462,All
-1.83959,0.0298077,All
-1.83321,0.0307692,All
-1.79865,0.0317308,All
-1.78097,0.0326923,All
-1.77205,0.0336538,All
-1.76235,0.0346154,All
-1.74752,0.0355769,All
-1.74485,0.0365385,All
-1.73639,0.0375,All
-1.72806,0.0384615,All
-1.70509,0.0394231,All
-1.69286,0.0403846,All
-1.69077,0.0413462,All
-1.68159,0.0423077,All
-1.67782,0.0432692,All
-1.6729,0.0442308,All
-1.66267,0.0451923,All
-1.65176,0.0461538,All
-1.65137,0.0471154,All
-1.64516,0.0480769,All
-1.64271,0.0490385,All
-1.62281,0.05,All
-1.59727,0.0509615,All
-1.5749,0.0519231,All
-1.57404,0.0528846,All
-1.57316,0.0538462,All
-1.56275,0.0548077,All
-1.56232,0.0557692,All
-1.54603,0.0567308,All
-1.54095,0.0576923,All
-1.53695,0.0586538,All
-1.51436,0.0596154,All
-1.50414,0.0605769,All
-1.49921,0.0615385,All
-1.49107,0.0625,All
-1.46979,0.0634615,All
-1.46721,0.0644231,All
-1.45806,0.0653846,All
-1.45037,0.0663462,All
-1.4384,0.0673077,All
-1.43328,0.0682692,All
-1.42713,0.0692308,All
-1.42677,0.0701923,All
-1.41711,0.0711538,All
-1.4153,0.0721154,All
-1.41072,0.0730769,All
-1.40987,0.0740385,All
-1.40545,0.075,All
-1.40521,0.0759615,All
-1.39383,0.0769231,All
-1.38552,0.0778846,All
-1.37833,0.0788462,All
-1.37497,0.0798077,All
-1.35783,0.0807692,All
-1.35695,0.0817308,All
-1.35627,0.0826923,All
-1.34307,0.0836538,All
-1.32784,0.0846154,All
-1.32058,0.0855769,All
-1.31856,0.0865385,All
-1.31204,0.0875,All
-1.3071,0.0884615,All
-1.30511,0.0894231,All
-1.30429,0.0903846,All
-1.30235,0.0913462,All
-1.29135,0.0923077,All
-1.28893,0.0932692,All
-1.28441,0.0942308,All
-1.28104,0.0951923,All
-1.2801,0.0961538,All
-1.27934,0.0971154,All
-1.27542,0.0980769,All
-1.27263,0.0990385,All
-1.27237,0.1,All
-1.27095,0.100962,All
-1.26108,0.101923,All
-1.26066,0.102885,All
-1.26045,0.103846,All
-1.2538,0.104808,All
-1.25042,0.105769,All
-1.24704,0.106731,All
-1.24489,0.107692,All
-1.23647,0.108654,All
-1.22704,0.109615,All
-1.22656,0.110577,All
-1.22583,0.111538,All
-1.22168,0.1125,All
-1.21554,0.113462,All
-1.21283,0.114423,All
-1.21028,0.115385,All
-1.20175,0.116346,All
-1.19947,0.117308,All
-1.19265,0.118269,All
-1.1716,0.119231,All
-1.17003,0.120192,All
-1.1678,0.121154,All
-1.15704,0.122115,All
-1.15633,0.123077,All
-1.15589,0.124038,All
-1.15469,0.125,All
-1.15378,0.125962,All
-1.15161,0.126923,All
-1.15055,0.127885,All
-1.1468,0.128846,All
-1.13707,0.129808,All
-1.13137,0.130769,All
-1.13006,0.131731,All
-1.11752,0.132692,All
-1.11392,0.133654,All
-1.11106,0.134615,All
-1.11003,0.135577,All
-1.10866,0.136538,All
-1.10518,0.1375,All
-1.0983,0.138462,All
-1.09727,0.139423,All
-1.09453,0.140385,All
-1.09331,0.141346,All
-1.09156,0.142308,All
-1.08659,0.143269,All
-1.07997,0.144231,All
-1.07997,0.145192,All
-1.07168,0.146154,All
-1.0674,0.147115,All
-1.06423,0.148077,All
-1.06408,0.149038,All
-1.05667,0.15,All
-1.05309,0.150962,All
-1.04852,0.151923,All
-1.04828,0.152885,All
-1.04559,0.153846,All
-1.04272,0.154808,All
-1.04211,0.155769,All
-1.0406,0.156731,All
-1.04022,0.157692,All
-1.0379,0.158654,All
-1.0332,0.159615,All
-1.02977,0.160577,All
-1.01682,0.161538,All
-1.01383,0.1625,All
-1.01219,0.163462,All
-1.00936,0.164423,All
-1.00347,0.165385,All
-0.997806,0.166346,All
-0.995458,0.167308,All
-0.994075,0.168269,All
-0.990782,0.169231,All
-0.975122,0.170192,All
-0.970185,0.171154,All
-0.968538,0.172115,All
-0.967703,0.173077,All
-0.966686,0.174038,All
-0.956274,0.175,All
-0.952989,0.175962,All
-0.952523,0.176923,All
-0.952325,0.177885,All
-0.951866,0.178846,All
-0.95141,0.179808,All
-0.949485,0.180769,All
-0.948538,0.181731,All
-0.948414,0.182692,All
-0.945612,0.183654,All
-0.936904,0.184615,All
-0.934849,0.185577,All
-0.932973,0.186538,All
-0.926381,0.1875,All
-0.923878,0.188462,All
-0.918243,0.189423,All
-0.916788,0.190385,All
-0.909731,0.191346,All
-0.909374,0.192308,All
-0.895017,0.193269,All
-0.893741,0.194231,All
-0.892,0.195192,All
-0.891515,0.196154,All
-0.891284,0.197115,All
-0.886281,0.198077,All
-0.885901,0.199038,All
-0.880487,0.2,All
-0.877064,0.200962,All
-0.87627,0.201923,All
-0.874149,0.202885,All
-0.871065,0.203846,All
-0.870274,0.204808,All
-0.865031,0.205769,All
-0.861965,0.206731,All
-0.85871,0.207692,All
-0.85864,0.208654,All
-0.857759,0.209615,All
-0.857302,0.210577,All
-0.856127,0.211538,All
-0.854037,0.2125,All
-0.849195,0.213462,All
-0.845642,0.214423,All
-0.845151,0.215385,All
-0.842762,0.216346,All
-0.834157,0.217308,All
-0.833168,0.218269,All
-0.832759,0.219231,All
-0.832628,0.220192,All
-0.826629,0.221154,All
-0.821837,0.222115,All
-0.811909,0.223077,All
-0.806234,0.224038,All
-0.805076,0.225,All
-0.804521,0.225962,All
-0.803585,0.226923,All
-0.796546,0.227885,All
-0.791173,0.228846,All
-0.78884,0.229808,All
-0.788193,0.230769,All
-0.782054,0.231731,All
-0.774908,0.232692,All
-0.772916,0.233654,All
-0.771363,0.234615,All
-0.770454,0.235577,All
-0.768964,0.236538,All
-0.760513,0.2375,All
-0.759799,0.238462,All
-0.754162,0.239423,All
-0.753909,0.240385,All
-0.7486,0.241346,All
-0.745766,0.242308,All
-0.743945,0.243269,All
-0.74323,0.244231,All
-0.741778,0.245192,All
-0.741774,0.246154,All
-0.738686,0.247115,All
-0.731201,0.248077,All
-0.729632,0.249038,All
-0.725813,0.25,All
-0.725234,0.250962,All
-0.723516,0.251923,All
-0.720043,0.252885,All
-0.713299,0.253846,All
-0.709515,0.254808,All
-0.707366,0.255769,All
-0.701361,0.256731,All
-0.700073,0.257692,All
-0.684755,0.258654,All
-0.680763,0.259615,All
-0.677561,0.260577,All
-0.674636,0.261538,All
-0.673805,0.2625,All
-0.669719,0.263462,All
-0.669038,0.264423,All
-0.659696,0.265385,All
-0.658338,0.266346,All
-0.658135,0.267308,All
-0.655434,0.268269,All
-0.647805,0.269231,All
-0.644919,0.270192,All
-0.64258,0.271154,All
-0.639851,0.272115,All
-0.631664,0.273077,All
-0.63024,0.274038,All
-0.628023,0.275,All
-0.62764,0.275962,All
-0.625774,0.276923,All
-0.623455,0.277885,All
-0.622354,0.278846,All
-0.616664,0.279808,All
-0.611492,0.280769,All
-0.610509,0.281731,All
-0.608978,0.282692,All
-0.606301,0.283654,All
-0.600014,0.284615,All
-0.583086,0.285577,All
-0.578961,0.286538,All
-0.578881,0.2875,All
-0.576397,0.288462,All
-0.567683,0.289423,All
-0.563755,0.290385,All
-0.561567,0.291346,All
-0.557062,0.292308,All
-0.557056,0.293269,All
-0.553649,0.294231,All
-0.553594,0.295192,All
-0.547682,0.296154,All
-0.544954,0.297115,All
-0.544731,0.298077,All
-0.544607,0.299038,All
-0.543044,0.3,All
-0.540469,0.300962,All
-0.537556,0.301923,All
-0.537248,0.302885,All
-0.537093,0.303846,All
-0.534869,0.304808,All
-0.533692,0.305769,All
-0.531803,0.306731,All
-0.531562,0.307692,All
-0.520739,0.308654,All
-0.51589,0.309615,All
-0.510618,0.310577,All
-0.508311,0.311538,All
-0.508292,0.3125,All
-0.508212,0.313462,All
-0.50661,0.314423,All
-0.506346,0.315385,All
-0.50436,0.316346,All
-0.500655,0.317308,All
-0.496734,0.318269,All
-0.495034,0.319231,All
-0.491077,0.320192,All
-0.480014,0.321154,All
-0.470905,0.322115,All
-0.470527,0.323077,All
-0.465976,0.324038,All
-0.465541,0.325,All
-0.46441,0.325962,All
-0.45591,0.326923,All
-0.455648,0.327885,All
-0.45411,0.328846,All
-0.450262,0.329808,All
-0.449786,0.330769,All
-0.448965,0.331731,All
-0.44818,0.332692,All
-0.447621,0.333654,All
-0.446921,0.334615,All
-0.442896,0.335577,All
-0.439577,0.336538,All
-0.435952,0.3375,All
-0.434941,0.338462,All
-0.418258,0.339423,All
-0.415568,0.340385,All
-0.414036,0.341346,All
-0.412969,0.342308,All
-0.411194,0.343269,All
-0.410299,0.344231,All
-0.407706,0.345192,All
-0.407392,0.346154,All
-0.405617,0.347115,All
-0.405068,0.348077,All
-0.404116,0.349038,All
-0.402718,0.35,All
-0.401981,0.350962,All
-0.397819,0.351923,All
-0.394871,0.352885,All
-0.374544,0.353846,All
-0.368057,0.354808,All
-0.367044,0.355769,All
-0.364937,0.356731,All
-0.364139,0.357692,All
-0.363614,0.358654,All
-0.359948,0.359615,All
-0.353103,0.360577,All
-0.348838,0.361538,All
-0.348553,0.3625,All
-0.348229,0.363462,All
-0.34588,0.364423,All
-0.344847,0.365385,All
-0.341691,0.366346,All
-0.340597,0.367308,All
-0.33767,0.368269,All
-0.332151,0.369231,All
-0.33055,0.370192,All
-0.328492,0.371154,All
-0.327461,0.372115,All
-0.326338,0.373077,All
-0.321932,0.374038,All
-0.319762,0.375,All
-0.319006,0.375962,All
-0.314613,0.376923,All
-0.310913,0.377885,All
-0.310187,0.378846,All
-0.309719,0.379808,All
-0.300794,0.380769,All
-0.30009,0.381731,All
-0.299976,0.382692,All
-0.299559,0.383654,All
-0.299209,0.384615,All
-0.298853,0.385577,All
-0.289261,0.386538,All
-0.283965,0.3875,All
-0.28377,0.388462,All
-0.279367,0.389423,All
-0.277999,0.390385,All
-0.277454,0.391346,All
-0.268929,0.392308,All
-0.266602,0.393269,All
-0.266109,0.394231,All
-0.263556,0.395192,All
-0.26097,0.396154,All
-0.25966,0.397115,All
-0.256289,0.398077,All
-0.253309,0.399038,All
-0.25328,0.4,All
-0.25,0.400962,All
-0.248318,0.401923,All
-0.248018,0.402885,All
-0.245919,0.403846,All
-0.241763,0.404808,All
-0.241308,0.405769,All
-0.231864,0.406731,All
-0.231339,0.407692,All
-0.231329,0.408654,All
-0.22707,0.409615,All
-0.225821,0.410577,All
-0.224363,0.411538,All
-0.216656,0.4125,All
-0.215426,0.413462,All
-0.208965,0.414423,All
-0.206711,0.415385,All
-0.204798,0.416346,All
-0.196934,0.417308,All
-0.196705,0.418269,All
-0.196551,0.419231,All
-0.195804,0.420192,All
-0.191601,0.421154,All
-0.19118,0.422115,All
-0.188891,0.423077,All
-0.18852,0.424038,All
-0.186948,0.425,All
-0.183679,0.425962,All
-0.180639,0.426923,All
-0.175896,0.427885,All
-0.17525,0.428846,All
-0.171742,0.429808,All
-0.165973,0.430769,All
-0.165592,0.431731,All
-0.164894,0.432692,All
-0.164595,0.433654,All
-0.162246,0.434615,All
-0.161293,0.435577,All
-0.157146,0.436538,All
-0.150042,0.4375,All
-0.146851,0.438462,All
-0.146834,0.439423,All
-0.144992,0.440385,All
-0.14491,0.441346,All
-0.143474,0.442308,All
-0.139268,0.443269,All
-0.137678,0.444231,All
-0.135074,0.445192,All
-0.127942,0.446154,All
-0.127227,0.447115,All
-0.127196,0.448077,All
-0.123641,0.449038,All
-0.122673,0.45,All
-0.118224,0.450962,All
-0.117306,0.451923,All
-0.117219,0.452885,All
-0.114317,0.453846,All
-0.112751,0.454808,All
-0.110615,0.455769,All
-0.108234,0.456731,All
-0.103942,0.457692,All
-0.100514,0.458654,All
-0.0941809,0.459615,All
-0.0900159,0.460577,All
-0.0893979,0.461538,All
-0.0886307,0.4625,All
-0.0881594,0.463462,All
-0.0802231,0.464423,All
-0.0768375,0.465385,All
-0.0726766,0.466346,All
-0.0690233,0.467308,All
-0.068793,0.468269,All
-0.0678186,0.469231,All
-0.0654371,0.470192,All
-0.0605728,0.471154,All
-0.0573212,0.472115,All
-0.0571893,0.473077,All
-0.0538307,0.474038,All
-0.0531544,0.475,All
-0.0517895,0.475962,All
-0.0494217,0.476923,All
-0.0451773,0.477885,All
-0.0448585,0.478846,All
-0.0437238,0.479808,All
-0.0426214,0.480769,All
-0.038128,0.481731,All
-0.0349236,0.482692,All
-0.0286579,0.483654,All
-0.0285665,0.484615,All
-0.02654,0.485577,All
-0.0232807,0.486538,All
-0.0200971,0.4875,All
-0.0192837,0.488462,All
-0.0191483,0.489423,All
-0.0151666,0.490385,All
-0.014886,0.491346,All
-0.0129806,0.492308,All
-0.0127202,0.493269,All
-0.00924002,0.494231,All
0.00466322,0.495192,All
0.00994889,0.496154,All
0.0163005,0.497115,All
0.016591,0.498077,All
0.0186854,0.499038,All
0.0222952,0.5,All
0.0242119,0.500962,All
0.0257917,0.501923,All
0.0371136,0.502885,All
0.037412,0.503846,All
0.0432447,0.504808,All
0.0448474,0.505769,All
0.0467529,0.506731,All
0.0476863,0.507692,All
0.0577168,0.508654,All
0.0588698,0.509615,All
0.0593029,0.510577,All
0.0612172,0.511538,All
0.0649265,0.5125,All
0.070094,0.513462,All
0.0721917,0.514423,All
0.0725877,0.515385,All
0.0725918,0.516346,All
0.0734661,0.517308,All
0.0736969,0.518269,All
0.074093,0.519231,All
0.0803412,0.520192,All
0.0811494,0.521154,All
0.0863365,0.522115,All
0.0890298,0.523077,All
0.0958911,0.524038,All
0.0961399,0.525,All
0.0967467,0.525962,All
0.105423,0.526923,All
0.114064,0.527885,All
0.119915,0.528846,All
0.125424,0.529808,All
0.125608,0.530769,All
0.131834,0.531731,All
0.138812,0.532692,All
0.139858,0.533654,All
0.141968,0.534615,All
0.146697,0.535577,All
0.147325,0.536538,All
0.148054,0.5375,All
0.150386,0.538462,All
0.152256,0.539423,All
0.152788,0.540385,All
0.15621,0.541346,All
0.156489,0.542308,All
0.156648,0.543269,All
0.157653,0.544231,All
0.161869,0.545192,All
0.163218,0.546154,All
0.163463,0.547115,All
0.16396,0.548077,All
0.16581,0.549038,All
0.166407,0.55,All
0.169667,0.550962,All
0.170362,0.551923,All
0.170573,0.552885,All
0.171002,0.553846,All
0.17141,0.554808,All
0.178225,0.555769,All
0.181941,0.556731,All
0.185502,0.557692,All
0.189973,0.558654,All
0.190005,0.559615,All
0.19442,0.560577,All
0.195186,0.561538,All
0.195705,0.5625,All
0.195813,0.563462,All
0.197689,0.564423,All
0.198956,0.565385,All
0.200323,0.566346,All
0.202495,0.567308,All
0.204952,0.568269,All
0.205639,0.569231,All
0.206419,0.570192,All
0.206443,0.571154,All
0.208637,0.572115,All
0.209039,0.573077,All
0.209794,0.574038,All
0.211053,0.575,All
0.211962,0.575962,All
0.211962,0.576923,All
0.215619,0.577885,All
0.220104,0.578846,All
0.221372,0.579808,All
0.232876,0.580769,All
0.24131,0.581731,All
0.250498,0.582692,All
0.25053,0.583654,All
0.252268,0.584615,All
0.253601,0.585577,All
0.254424,0.586538,All
0.256082,0.5875,All
0.262385,0.588462,All
0.263538,0.589423,All
0.26938,0.590385,All
0.272924,0.591346,All
0.274357,0.592308,All
0.276919,0.593269,All
0.277016,0.594231,All
0.27777,0.595192,All
0.278367,0.596154,All
0.282355,0.597115,All
0.282697,0.598077,All
0.285442,0.599038,All
0.292467,0.6,All
0.29476,0.600962,All
0.29673,0.601923,All
0.297848,0.602885,All
0.298398,0.603846,All
0.298685,0.604808,All
0.299987,0.605769,All
0.300364,0.606731,All
0.305961,0.607692,All
0.306023,0.608654,All
0.31085,0.609615,All
0.311759,0.610577,All
0.313793,0.611538,All
0.315836,0.6125,All
0.320165,0.613462,All
0.32359,0.614423,All
0.326563,0.615385,All
0.32671,0.616346,All
0.328261,0.617308,All
0.330648,0.618269,All
0.334874,0.619231,All
0.335919,0.620192,All
0.340554,0.621154,All
0.341296,0.622115,All
0.345083,0.623077,All
0.349745,0.624038,All
0.352231,0.625,All
0.353152,0.625962,All
0.353972,0.626923,All
0.354562,0.627885,All
0.356326,0.628846,All
0.365319,0.629808,All
0.365983,0.630769,All
0.366012,0.631731,All
0.366819,0.632692,All
0.366889,0.633654,All
0.367915,0.634615,All
0.369277,0.635577,All
0.370272,0.636538,All
0.371432,0.6375,All
0.375918,0.638462,All
0.376243,0.639423,All
0.376263,0.640385,All
0.376323,0.641346,All
0.378159,0.642308,All
0.380554,0.643269,All
0.381357,0.644231,All
0.383981,0.645192,All
0.384478,0.646154,All
0.385359,0.647115,All
0.392712,0.648077,All
0.399115,0.649038,All
0.400445,0.65,All
0.401831,0.650962,All
0.404029,0.651923,All
0.405273,0.652885,All
0.405936,0.653846,All
0.408005,0.654808,All
0.418376,0.655769,All
0.422521,0.656731,All
0.424625,0.657692,All
0.426079,0.658654,All
0.428925,0.659615,All
0.435403,0.660577,All
0.435537,0.661538,All
0.438539,0.6625,All
0.439282,0.663462,All
0.439301,0.664423,All
0.439624,0.665385,All
0.440732,0.666346,All
0.441216,0.667308,All
0.450528,0.668269,All
0.451212,0.669231,All
0.451735,0.670192,All
0.452664,0.671154,All
0.453974,0.672115,All
0.456066,0.673077,All
0.45709,0.674038,All
0.46264,0.675,All
0.465427,0.675962,All
0.469804,0.676923,All
0.469985,0.677885,All
0.470852,0.678846,All
0.471306,0.679808,All
0.475336,0.680769,All
0.476157,0.681731,All
0.478774,0.682692,All
0.479478,0.683654,All
0.482742,0.684615,All
0.483028,0.685577,All
0.485146,0.686538,All
0.485466,0.6875,All
0.48903,0.688462,All
0.492594,0.689423,All
0.493017,0.690385,All
0.496137,0.691346,All
0.500608,0.692308,All
0.502692,0.693269,All
0.503081,0.694231,All
0.504684,0.695192,All
0.508049,0.696154,All
0.508239,0.697115,All
0.513316,0.698077,All
0.513517,0.699038,All
0.515419,0.7,All
0.518312,0.700962,All
0.519355,0.701923,All
0.521085,0.702885,All
0.521262,0.703846,All
0.52284,0.704808,All
0.525915,0.705769,All
0.527521,0.706731,All
0.528102,0.707692,All
0.529921,0.708654,All
0.534539,0.709615,All
0.539659,0.710577,All
0.542086,0.711538,All
0.546985,0.7125,All
0.555421,0.713462,All
0.558885,0.714423,All
0.564262,0.715385,All
0.566125,0.716346,All
0.569455,0.717308,All
0.571123,0.718269,All
0.572309,0.719231,All
0.5818,0.720192,All
0.584038,0.721154,All
0.585607,0.722115,All
0.586466,0.723077,All
0.588881,0.724038,All
0.598341,0.725,All
0.600147,0.725962,All
0.601413,0.726923,All
0.602987,0.727885,All
0.603712,0.728846,All
0.606545,0.729808,All
0.608812,0.730769,All
0.610022,0.731731,All
0.612128,0.732692,All
0.614141,0.733654,All
0.614476,0.734615,All
0.615217,0.735577,All
0.618857,0.736538,All
0.626359,0.7375,All
0.626975,0.738462,All
0.631439,0.739423,All
0.632278,0.740385,All
0.632946,0.741346,All
0.645524,0.742308,All
0.647853,0.743269,All
0.652253,0.744231,All
0.652352,0.745192,All
0.657743,0.746154,All
0.660132,0.747115,All
0.660862,0.748077,All
0.662197,0.749038,All
0.662205,0.75,All
0.663723,0.750962,All
0.66691,0.751923,All
0.675692,0.752885,All
0.677521,0.753846,All
0.684405,0.754808,All
0.693767,0.755769,All
0.696099,0.756731,All
0.696725,0.757692,All
0.697091,0.758654,All
0.69931,0.759615,All
0.70255,0.760577,All
0.703019,0.761538,All
0.704611,0.7625,All
0.711154,0.763462,All
0.717896,0.764423,All
0.724247,0.765385,All
0.731113,0.766346,All
0.733698,0.767308,All
0.740381,0.768269,All
0.741328,0.769231,All
0.747746,0.770192,All
0.748164,0.771154,All
0.755737,0.772115,All
0.756189,0.773077,All
0.762724,0.774038,All
0.764597,0.775,All
0.770267,0.775962,All
0.775237,0.776923,All
0.776737,0.777885,All
0.779193,0.778846,All
0.78055,0.779808,All
0.783111,0.780769,All
0.785776,0.781731,All
0.790328,0.782692,All
0.795358,0.783654,All
0.801818,0.784615,All
0.802321,0.785577,All
0.809272,0.786538,All
0.813619,0.7875,All
0.814523,0.788462,All
0.816027,0.789423,All
0.817578,0.790385,All
0.821994,0.791346,All
0.824919,0.792308,All
0.83533,0.793269,All
0.835889,0.794231,All
0.836374,0.795192,All
0.842711,0.796154,All
0.84747,0.797115,All
0.848355,0.798077,All
0.852796,0.799038,All
0.853871,0.8,All
0.856374,0.800962,All
0.859407,0.801923,All
0.870169,0.802885,All
0.871903,0.803846,All
0.875493,0.804808,All
0.87645,0.805769,All
0.877727,0.806731,All
0.879538,0.807692,All
0.88612,0.808654,All
0.892309,0.809615,All
0.899285,0.810577,All
0.900254,0.811538,All
0.90425,0.8125,All
0.910498,0.813462,All
0.920255,0.814423,All
0.921386,0.815385,All
0.927237,0.816346,All
0.936287,0.817308,All
0.937354,0.818269,All
0.937528,0.819231,All
0.940086,0.820192,All
0.943833,0.821154,All
0.954149,0.822115,All
0.955827,0.823077,All
0.963054,0.824038,All
0.963117,0.825,All
0.967422,0.825962,All
0.967646,0.826923,All
0.977649,0.827885,All
0.981368,0.828846,All
0.994746,0.829808,All
1.00791,0.830769,All
1.03005,0.831731,All
1.03624,0.832692,All
1.0368,0.833654,All
1.03868,0.834615,All
1.04556,0.835577,All
1.04591,0.836538,All
1.04855,0.8375,All
1.04926,0.838462,All
1.04981,0.839423,All
1.05861,0.840385,All
1.06523,0.841346,All
1.06646,0.842308,All
1.06671,0.843269,All
1.06791,0.844231,All
1.07567,0.845192,All
1.076,0.846154,All
1.07714,0.847115,All
1.08634,0.848077,All
1.09429,0.849038,All
1.09473,0.85,All
1.09607,0.850962,All
1.10965,0.851923,All
1.12039,0.852885,All
1.12428,0.853846,All
1.12588,0.854808,All
1.12893,0.855769,All
1.12996,0.856731,All
1.14227,0.857692,All
1.14341,0.858654,All
1.14485,0.859615,All
1.14744,0.860577,All
1.15197,0.861538,All
1.154,0.8625,All
1.15796,0.863462,All
1.16025,0.864423,All
1.16642,0.865385,All
1.18842,0.866346,All
1.19806,0.867308,All
1.19951,0.868269,All
1.20666,0.869231,All
1.21011,0.870192,All
1.2188,0.871154,All
1.24065,0.872115,All
1.24219,0.873077,All
1.24538,0.874038,All
1.24587,0.875,All
1.24904,0.875962,All
1.25287,0.876923,All
1.25308,0.877885,All
1.26036,0.878846,All
1.27039,0.879808,All
1.27342,0.880769,All
1.27633,0.881731,All
1.27763,0.882692,All
1.28176,0.883654,All
1.28893,0.884615,All
1.2892,0.885577,All
1.30319,0.886538,All
1.30853,0.8875,All
1.3097,0.888462,All
1.32943,0.889423,All
1.34061,0.890385,All
1.34558,0.891346,All
1.34981,0.892308,All
1.35637,0.893269,All
1.36017,0.894231,All
1.36123,0.895192,All
1.36379,0.896154,All
1.37228,0.897115,All
1.37694,0.898077,All
1.37743,0.899038,All
1.38271,0.9,All
1.39387,0.900962,All
1.40247,0.901923,All
1.40312,0.902885,All
1.40323,0.903846,All
1.41022,0.904808,All
1.41334,0.905769,All
1.4174,0.906731,All
1.42156,0.907692,All
1.42322,0.908654,All
1.44196,0.909615,All
1.44219,0.910577,All
1.44603,0.911538,All
1.45134,0.9125,All
1.45139,0.913462,All
1.45422,0.914423,All
1.45438,0.915385,All
1.45943,0.916346,All
1.46746,0.917308,All
1.47473,0.918269,All
1.47511,0.919231,All
1.47541,0.920192,All
1.4762,0.921154,All
1.47777,0.922115,All
1.497,0.923077,All
1.49992,0.924038,All
1.50553,0.925,All
1.52145,0.925962,All
1.52529,0.926923,All
1.5344,0.927885,All
1.53579,0.928846,All
1.54075,0.929808,All
1.54141,0.930769,All
1.54855,0.931731,All
1.55077,0.932692,All
1.55578,0.933654,All
1.55835,0.934615,All
1.56077,0.935577,All
1.56622,0.936538,All
1.56888,0.9375,All
1.56986,0.938462,All
1.57171,0.939423,All
1.58857,0.940385,All
1.60415,0.941346,All
1.60513,0.942308,All
1.62734,0.943269,All
1.62903,0.944231,All
1.62925,0.945192,All
1.63784,0.946154,All
1.64522,0.947115,All
1.65087,0.948077,All
1.66,0.949038,All
1.68889,0.95,All
1.69071,0.950962,All
1.69518,0.951923,All
1.69598,0.952885,All
1.70705,0.953846,All
1.71095,0.954808,All
1.71185,0.955769,All
1.71709,0.956731,All
1.73392,0.957692,All
1.73834,0.958654,All
1.74823,0.959615,All
1.74865,0.960577,All
1.76425,0.961538,All
1.79996,0.9625,All
1.80607,0.963462,All
1.81042,0.964423,All
1.81963,0.965385,All
1.82092,0.966346,All
1.83754,0.967308,All
1.84598,0.968269,All
1.8634,0.969231,All
1.8787,0.970192,All
1.88008,0.971154,All
1.89276,0.972115,All
1.94069,0.973077,All
1.96023,0.974038,All
1.96024,0.975,All
1.96165,0.975962,All
1.97066,0.976923,All
1.99254,0.977885,All
1.99584,0.978846,All
2.01777,0.979808,All
2.11546,0.980769,All
2.12989,0.981731,All
2.13405,0.982692,All
2.1379,0.983654,All
2.19991,0.984615,All
2.20896,0.985577,All
2.2682,0.986538,All
2.27005,0.9875,All
2.27462,0.988462,All
2.36661,0.989423,All
2.40513,0.990385,All
2.53655,0.991346,All
2.54128,0.992308,All
2.55124,0.993269,All
2.57751,0.994231,All
2.66616,0.995192,All
2.67557,0.996154,All
2.79427,0.997115,All
2.88112,0.998077,All
2.93496,0.999038,All
3.31381,1,All
4,1,All
