id,Te_SAEM,s_SAEM,Te_mean,s_mean,Te_mode,s_mode,Te_sd,s_sd,log_Mu,mu
1,62.8219,20.9548,62.9462,17.8763,62.9822,17.8763,4.27161,0,-10.0977,4.11733e-05
2,52.271,20.9548,52.6409,17.8763,52.4396,17.8763,4.06664,0,-9.2486,9.62464e-05
3,59.1452,20.9548,60.3762,17.8763,59.7169,17.8763,4.6628,0,-10.2027,3.70714e-05
4,53.3691,20.9548,54.491,17.8763,52.6754,17.8763,3.27109,0,-9.41452,8.15317e-05
5,59.8344,20.9548,59.9796,17.8763,59.5547,17.8763,4.25674,0,-10.5793,2.54377e-05
6,81.4917,20.9548,81.7463,17.8763,81.6987,17.8763,6.04936,0,-13.1846,1.87931e-06
7,60.5094,20.9548,61.5099,17.8763,60.9853,17.8763,4.93687,0,-10.1319,3.97895e-05
8,68.2263,20.9548,68.3863,17.8763,68.2462,17.8763,4.8553,0,-10.5325,2.66556e-05
9,67.9625,20.9548,67.6674,17.8763,67.976,17.8763,4.67011,0,-10.3539,3.18675e-05
10,60.0879,20.9548,60.4695,17.8763,60.3665,17.8763,4.32516,0,-9.13524,0.000107799
11,71.4295,20.9548,70.5674,17.8763,72.0584,17.8763,5.51347,0,-10.577,2.54952e-05
12,48.8343,20.9548,48.6063,17.8763,48.5747,17.8763,3.8895,0,-6.55049,0.00142941
13,77.9337,20.9548,77.1695,17.8763,77.1974,17.8763,5.32546,0,-12.0958,5.58282e-06
14,70.7253,20.9548,71.8336,17.8763,71.1715,17.8763,4.40343,0,-11.593,9.23039e-06
15,80.0593,20.9548,78.5596,17.8763,78.5742,17.8763,6.01658,0,-10.5081,2.73138e-05
16,74.7263,20.9548,74.8787,17.8763,74.5361,17.8763,4.72112,0,-12.0466,5.86417e-06
17,78.431,20.9548,78.1091,17.8763,78.7313,17.8763,6.42997,0,-12.6057,3.35294e-06
18,79.2343,20.9548,79.0582,17.8763,80.3158,17.8763,6.28281,0,-11.6171,9.01031e-06
19,65.3216,20.9548,64.5532,17.8763,64.4264,17.8763,4.71723,0,-11.6179,9.00315e-06
20,73.5663,20.9548,72.789,17.8763,73.2667,17.8763,5.96124,0,-11.6669,8.57336e-06
21,68.5066,20.9548,68.176,17.8763,68.6184,17.8763,4.7439,0,-11.6917,8.36322e-06
22,77.3306,20.9548,76.2117,17.8763,76.7215,17.8763,6.16335,0,-11.2063,1.35888e-05
23,65.7819,20.9548,63.7936,17.8763,64.9032,17.8763,5.73317,0,-8.79713,0.000151167
24,58.337,20.9548,59.4772,17.8763,58.9982,17.8763,4.89593,0,-11.4485,1.06655e-05
25,60.3514,20.9548,60.3335,17.8763,60.2801,17.8763,3.24835,0,-10.6155,2.45334e-05
26,66.143,20.9548,65.974,17.8763,65.2096,17.8763,4.75248,0,-11.2207,1.33935e-05
27,68.2406,20.9548,67.1999,17.8763,68.1193,17.8763,4.17892,0,-10.8345,1.97083e-05
28,77.4972,20.9548,78.9376,17.8763,78.0638,17.8763,5.0429,0,-11.5902,9.25606e-06
29,89.0334,20.9548,90.3392,17.8763,89.812,17.8763,5.84969,0,-15.4143,2.02144e-07
30,79.1434,20.9548,77.0283,17.8763,78.5154,17.8763,6.08795,0,-11.8186,7.36647e-06
31,109.468,20.9548,108.898,17.8763,107.654,17.8763,9.07466,0,-17.2471,3.23363e-08
32,67.3682,20.9548,66.4606,17.8763,67.0095,17.8763,5.24297,0,-10.1391,3.95027e-05
33,65.9413,20.9548,66.4091,17.8763,66.5004,17.8763,4.79641,0,-9.80198,5.5342e-05
34,65.6335,20.9548,65.3405,17.8763,65.8661,17.8763,5.2649,0,-10.7209,2.20792e-05
35,61.4826,20.9548,61.265,17.8763,60.9301,17.8763,5.09399,0,-11.0706,1.55633e-05
36,74.1025,20.9548,72.2399,17.8763,74.3774,17.8763,5.29353,0,-10.1387,3.95186e-05
37,64.0616,20.9548,64.4264,17.8763,64.6194,17.8763,4.55375,0,-11.7473,7.91098e-06
38,56.9638,20.9548,56.5871,17.8763,56.9319,17.8763,3.59585,0,-10.1664,3.84418e-05
39,73.1069,20.9548,77.0237,17.8763,74.1048,17.8763,7.63808,0,-15.9875,1.13953e-07
40,71.7067,20.9548,71.9246,17.8763,70.9508,17.8763,5.33296,0,-12.7739,2.83364e-06
41,74.7002,20.9548,75.1672,17.8763,74.6458,17.8763,4.65093,0,-10.2523,3.52767e-05
42,76.5615,20.9548,75.7751,17.8763,76.5248,17.8763,5.64023,0,-11.1101,1.49599e-05
43,77.6543,20.9548,77.4616,17.8763,77.5428,17.8763,6.08434,0,-11.3344,1.19541e-05
44,56.3653,20.9548,55.9476,17.8763,56.0343,17.8763,4.16891,0,-9.9647,4.70312e-05
45,67.9807,20.9548,69.2923,17.8763,68.9198,17.8763,5.4657,0,-11.4343,1.08183e-05
46,63.64,20.9548,62.6846,17.8763,62.8721,17.8763,4.47338,0,-10.0164,4.46613e-05
47,67.0666,20.9548,66.8701,17.8763,66.4891,17.8763,4.43297,0,-9.79454,5.57553e-05
48,84.8726,20.9548,84.4403,17.8763,85.2106,17.8763,6.16991,0,-13.0793,2.08799e-06
49,55.8362,20.9548,56.3175,17.8763,56.1575,17.8763,3.70091,0,-9.02195,0.000120731
50,64.5811,20.9548,65.1377,17.8763,64.0054,17.8763,4.38843,0,-11.3316,1.19882e-05
51,74.6184,20.9548,72.9965,17.8763,73.6506,17.8763,5.94439,0,-11.5072,1.00574e-05
52,57.9023,20.9548,58.0536,17.8763,57.7442,17.8763,3.97923,0,-9.73858,5.89641e-05
53,52.7259,20.9548,53.1969,17.8763,52.8276,17.8763,4.17079,0,-9.05584,0.000116707
54,59.0023,20.9548,58.5769,17.8763,58.8166,17.8763,4.15028,0,-9.51221,7.39433e-05
55,63.0418,20.9548,61.7377,17.8763,62.3648,17.8763,4.25814,0,-9.63795,6.52064e-05
56,57.4097,20.9548,58.5636,17.8763,56.8224,17.8763,4.43359,0,-10.4912,2.77811e-05
57,74.7046,20.9548,76.1531,17.8763,75.061,17.8763,5.13298,0,-12.3719,4.23584e-06
58,49.3644,20.9548,50.5517,17.8763,49.4518,17.8763,3.68786,0,-8.45892,0.000212001
59,64.0953,20.9548,64.552,17.8763,64.3624,17.8763,4.34435,0,-10.1253,4.00526e-05
60,73.4436,20.9548,68.6634,17.8763,69.2358,17.8763,7.24495,0,-8.00527,0.0003337
61,70.4522,20.9548,70.5153,17.8763,70.4549,17.8763,5.0344,0,-12.4575,3.88854e-06
62,70.9112,20.9548,70.381,17.8763,70.7113,17.8763,4.48334,0,-9.20646,0.000100389
63,71.0923,20.9548,70.5987,17.8763,70.9172,17.8763,4.82544,0,-11.4257,1.09117e-05
64,69.5991,20.9548,68.7807,17.8763,69.3725,17.8763,4.39165,0,-10.4343,2.94051e-05
65,67.8813,20.9548,67.7639,17.8763,68.1193,17.8763,4.4296,0,-10.8692,1.90351e-05
66,60.2494,20.9548,60.6647,17.8763,59.5078,17.8763,5.34596,0,-11.7245,8.09292e-06
67,70.5548,20.9548,69.4652,17.8763,69.6525,17.8763,4.883,0,-11.9295,6.59279e-06
68,57.4138,20.9548,57.7976,17.8763,57.6131,17.8763,4.17605,0,-10.6036,2.48273e-05
69,70.9123,20.9548,70.198,17.8763,71.2592,17.8763,5.34187,0,-10.4617,2.86116e-05
70,57.0462,20.9548,57.2034,17.8763,56.3425,17.8763,3.18902,0,-9.70193,6.11651e-05
71,68.7997,20.9548,68.5148,17.8763,68.3131,17.8763,5.08123,0,-11.0226,1.63283e-05
72,71.6633,20.9548,72.571,17.8763,71.768,17.8763,5.50398,0,-12.8597,2.60066e-06
73,57.3518,20.9548,57.6619,17.8763,57.8075,17.8763,4.58179,0,-8.70421,0.000165887
74,59.8357,20.9548,60.3375,17.8763,59.9985,17.8763,4.2842,0,-10.4123,3.00591e-05
75,50.4008,20.9548,51.1431,17.8763,50.4428,17.8763,3.77209,0,-8.21982,0.000269263
76,59.373,20.9548,59.1673,17.8763,59.2805,17.8763,4.12105,0,-10.3813,3.10077e-05
77,66.8427,20.9548,65.3679,17.8763,65.9969,17.8763,4.73286,0,-9.88997,5.06805e-05
78,57.1785,20.9548,56.7284,17.8763,56.9039,17.8763,3.98419,0,-9.07457,0.000114541
79,60.1361,20.9548,59.6235,17.8763,60.1257,17.8763,4.36287,0,-9.99709,4.55323e-05
80,64.8856,20.9548,65.657,17.8763,64.18,17.8763,4.54311,0,-10.9747,1.71296e-05
81,71.9185,20.9548,71.9498,17.8763,71.4087,17.8763,5.102,0,-10.2173,3.65328e-05
82,71.2142,20.9548,71.3253,17.8763,71.172,17.8763,5.26576,0,-12.9139,2.46359e-06
83,74.8042,20.9548,74.5646,17.8763,74.621,17.8763,5.61678,0,-12.0989,5.56574e-06
84,63.4874,20.9548,64.6669,17.8763,63.4326,17.8763,4.94219,0,-10.9274,1.79593e-05
85,64.8195,20.9548,65.2351,17.8763,64.6154,17.8763,5.03032,0,-10.307,3.33971e-05
86,73.8924,20.9548,72.8539,17.8763,73.2753,17.8763,5.32342,0,-11.6722,8.52756e-06
87,54.7415,20.9548,55.5373,17.8763,55.0712,17.8763,4.55962,0,-11.0525,1.58479e-05
88,73.2405,20.9548,72.8191,17.8763,73.9168,17.8763,4.68775,0,-11.6686,8.55879e-06
89,71.2385,20.9548,71.1329,17.8763,70.9361,17.8763,5.57501,0,-9.96514,4.70104e-05
90,52.1062,20.9548,53.4997,17.8763,52.7326,17.8763,4.27781,0,-9.45407,7.837e-05
91,50.361,20.9548,51.8326,17.8763,50.6594,17.8763,3.88916,0,-8.3939,0.000226244
92,67.7997,20.9548,68.1268,17.8763,68.7794,17.8763,4.60457,0,-10.067,4.24557e-05
93,68.9106,20.9548,70.5863,17.8763,69.2631,17.8763,4.49734,0,-12.1241,5.42711e-06
94,50.3905,20.9548,51.0143,17.8763,49.6984,17.8763,4.09905,0,-9.03175,0.000119553
95,62.3676,20.9548,60.6345,17.8763,62.4188,17.8763,4.39629,0,-8.74089,0.000159912
96,55.2543,20.9548,55.7651,17.8763,56.2085,17.8763,3.83749,0,-9.59961,6.77548e-05
97,77.1418,20.9548,75.815,17.8763,76.7766,17.8763,6.10639,0,-12.2208,4.9267e-06
98,60.2703,20.9548,60.7123,17.8763,60.7471,17.8763,4.59745,0,-8.91968,0.000133731
99,55.6848,20.9548,55.9054,17.8763,55.3206,17.8763,4.60845,0,-10.3399,3.23164e-05
100,59.0088,20.9548,59.9882,17.8763,59.1499,17.8763,4.88531,0,-9.7717,5.70435e-05
101,71.2164,20.9548,70.0977,17.8763,70.2188,17.8763,4.67157,0,-13.1566,1.93271e-06
102,77.618,20.9548,76.9593,17.8763,77.9157,17.8763,5.85783,0,-11.8157,7.38756e-06
103,68.3249,20.9548,68.593,17.8763,68.1193,17.8763,4.5419,0,-10.8757,1.89123e-05
104,71.968,20.9548,70.3275,17.8763,71.3913,17.8763,5.01729,0,-10.5376,2.65216e-05
