id,time,Event
1,0,0
1,63,1
2,0,0
2,49,1
3,0,0
3,58,1
4,0,0
4,49,1
5,0,0
5,57,1
6,0,0
6,84,1
7,0,0
7,60,1
8,0,0
8,70,1
9,0,0
9,70,1
10,0,0
10,61,1
11,0,0
11,76,1
12,0,0
12,48,1
13,0,0
13,80,1
14,0,0
14,72,1
15,0,0
15,90,1
16,0,0
16,76,1
17,0,0
17,81,1
18,0,0
18,87,1
19,0,0
19,62,1
20,0,0
20,75,1
21,0,0
21,68,1
22,0,0
22,82,1
23,0,0
23,69,1
24,0,0
24,54,1
25,0,0
25,58,1
26,0,0
26,64,1
27,0,0
27,69,1
28,0,0
28,83,1
29,0,0
29,90,1
30,0,0
30,83,1
31,0,0
31,102,0
32,0,0
32,69,1
33,0,0
33,69,1
34,0,0
34,66,1
35,0,0
35,58,1
36,0,0
36,82,1
37,0,0
37,62,1
38,0,0
38,54,1
39,0,0
39,59,1
40,0,0
40,69,1
41,0,0
41,82,1
42,0,0
42,82,1
43,0,0
43,83,1
44,0,0
44,53,1
45,0,0
45,69,1
46,0,0
46,63,1
47,0,0
47,69,1
48,0,0
48,90,1
49,0,0
49,55,1
50,0,0
50,62,1
51,0,0
51,76,1
52,0,0
52,56,1
53,0,0
53,50,1
54,0,0
54,58,1
55,0,0
55,63,1
56,0,0
56,53,1
57,0,0
57,76,1
58,0,0
58,46,1
59,0,0
59,65,1
60,0,0
60,102,0
61,0,0
61,69,1
62,0,0
62,79,1
63,0,0
63,72,1
64,0,0
64,72,1
65,0,0
65,69,1
66,0,0
66,54,1
67,0,0
67,69,1
68,0,0
68,54,1
69,0,0
69,75,1
70,0,0
70,54,1
71,0,0
71,69,1
72,0,0
72,70,1
73,0,0
73,58,1
74,0,0
74,58,1
75,0,0
75,48,1
76,0,0
76,57,1
77,0,0
77,68,1
78,0,0
78,56,1
79,0,0
79,59,1
80,0,0
80,63,1
81,0,0
81,76,1
82,0,0
82,69,1
83,0,0
83,76,1
84,0,0
84,62,1
85,0,0
85,65,1
86,0,0
86,75,1
87,0,0
87,48,1
88,0,0
88,76,1
89,0,0
89,76,1
90,0,0
90,49,1
91,0,0
91,48,1
92,0,0
92,72,1
93,0,0
93,68,1
94,0,0
94,45,1
95,0,0
95,65,1
96,0,0
96,54,1
97,0,0
97,79,1
98,0,0
98,62,1
99,0,0
99,51,1
100,0,0
100,58,1
101,0,0
101,67,1
102,0,0
102,82,1
103,0,0
103,69,1
104,0,0
104,75,1