id,importanceSampling
1,6.778
2,8.897
3,7.052
4,8.895
5,7.165
6,9.058
7,6.883
8,7.028
9,7.030
10,6.846
11,7.708
12,9.244
13,8.328
14,7.216
15,10.341
16,7.698
17,8.498
18,9.680
19,6.804
20,7.568
21,6.897
22,8.672
23,6.960
24,7.619
25,7.054
26,6.775
27,6.955
28,8.862
29,10.350
30,8.859
31,9.538
32,6.959
33,6.960
34,6.812
35,7.059
36,8.677
37,6.797
38,7.631
39,6.964
40,6.960
41,8.665
42,8.676
43,8.865
44,7.823
45,6.959
46,6.780
47,6.963
48,10.339
49,7.455
50,6.795
51,7.700
52,7.295
53,8.581
54,7.057
55,6.784
56,7.822
57,7.699
58,10.023
59,6.785
60,9.527
61,6.950
62,8.147
63,7.206
64,7.223
65,6.955
66,7.617
67,6.952
68,7.628
69,7.570
70,7.621
71,6.973
72,7.035
73,7.052
74,7.049
75,9.221
76,7.157
77,6.892
78,7.295
79,6.968
80,6.779
81,7.697
82,6.954
83,7.695
84,6.799
85,6.783
86,7.564
87,9.232
88,7.702
89,7.699
90,8.902
91,9.229
92,7.214
93,6.893
94,10.467
95,6.789
96,7.622
97,8.143
98,6.798
99,8.307
100,7.054
101,6.843
102,8.672
103,6.955
104,7.561
